what,kind,bundleId,bundleVersion,description,time
deactivated,workbench,org.eclipse.ui.workbench,3.4.1.M20080827-0800a,,1252193973546
activated,workbench,org.eclipse.ui.workbench,3.4.1.M20080827-0800a,,1252194083703
deactivated,workbench,org.eclipse.ui.workbench,3.4.1.M20080827-0800a,,1252194084546
activated,workbench,org.eclipse.ui.workbench,3.4.1.M20080827-0800a,,1252194084562
deactivated,workbench,org.eclipse.ui.workbench,3.4.1.M20080827-0800a,,1252194084953
activated,workbench,org.eclipse.ui.workbench,3.4.1.M20080827-0800a,,1252194088656
deactivated,workbench,org.eclipse.ui.workbench,3.4.1.M20080827-0800a,,1252194089453
activated,workbench,org.eclipse.ui.workbench,3.4.1.M20080827-0800a,,1252194089453
deactivated,workbench,org.eclipse.ui.workbench,3.4.1.M20080827-0800a,,1252194089562
activated,workbench,org.eclipse.ui.workbench,3.4.1.M20080827-0800a,,1252264248921
deactivated,workbench,org.eclipse.ui.workbench,3.4.1.M20080827-0800a,,1252264274109
activated,workbench,org.eclipse.ui.workbench,3.4.1.M20080827-0800a,,1252264355468
executed,command,org.eclipse.ui,3.4.1.M20080910-0800,org.eclipse.ui.edit.delete,1252264473640
executed,command,org.eclipse.ui,3.4.1.M20080910-0800,org.eclipse.ui.edit.delete,1252264474046
executed,command,org.eclipse.ui,3.4.1.M20080910-0800,org.eclipse.ui.edit.delete,1252264474265
executed,command,org.eclipse.ui,3.4.1.M20080910-0800,org.eclipse.ui.edit.delete,1252264476093
executed,command,org.eclipse.ui,3.4.1.M20080910-0800,org.eclipse.ui.edit.delete,1252264476296
executed,command,org.eclipse.ui,3.4.1.M20080910-0800,org.eclipse.ui.edit.delete,1252264476500
deactivated,workbench,org.eclipse.ui.workbench,3.4.1.M20080827-0800a,,1252264485781
activated,workbench,org.eclipse.ui.workbench,3.4.1.M20080827-0800a,,1252264486234
deactivated,workbench,org.eclipse.ui.workbench,3.4.1.M20080827-0800a,,1252264488703
activated,workbench,org.eclipse.ui.workbench,3.4.1.M20080827-0800a,,1252264536703
deactivated,workbench,org.eclipse.ui.workbench,3.4.1.M20080827-0800a,,1252264537406
activated,workbench,org.eclipse.ui.workbench,3.4.1.M20080827-0800a,,1252264563421
deactivated,workbench,org.eclipse.ui.workbench,3.4.1.M20080827-0800a,,1252264563843
