what,kind,bundleId,bundleVersion,description,time
executed,command,org.eclipse.ui,3.4.1.M20080910-0800,org.eclipse.ui.edit.delete,1252265733296
executed,command,org.eclipse.ui,3.4.1.M20080910-0800,org.eclipse.ui.edit.delete,1252265733328
executed,command,org.eclipse.ui,3.4.1.M20080910-0800,org.eclipse.ui.edit.delete,1252265733359
executed,command,org.eclipse.ui,3.4.1.M20080910-0800,org.eclipse.ui.edit.delete,1252265733390
executed,command,org.eclipse.ui,3.4.1.M20080910-0800,org.eclipse.ui.edit.delete,1252265733421
executed,command,org.eclipse.ui,3.4.1.M20080910-0800,org.eclipse.ui.edit.delete,1252265733453
executed,command,org.eclipse.ui,3.4.1.M20080910-0800,org.eclipse.ui.edit.delete,1252265733484
executed,command,org.eclipse.ui,3.4.1.M20080910-0800,org.eclipse.ui.edit.delete,1252265733671
executed,command,org.eclipse.ui,3.4.1.M20080910-0800,org.eclipse.ui.edit.delete,1252265733843
executed,command,org.eclipse.ui,3.4.1.M20080910-0800,org.eclipse.ui.edit.delete,1252265734015
executed,command,org.eclipse.ui,3.4.1.M20080910-0800,org.eclipse.ui.edit.delete,1252265734437
executed,command,org.eclipse.ui.workbench.texteditor,3.4.1.r341_v20080827-1100,org.eclipse.ui.edit.text.goto.lineEnd,1252265735390
executed,command,org.eclipse.ui.workbench.texteditor,3.4.1.r341_v20080827-1100,org.eclipse.ui.edit.text.goto.lineStart,1252265739359
executed,command,org.eclipse.ui,3.4.1.M20080910-0800,org.eclipse.ui.file.save,1252265740953
deactivated,workbench,org.eclipse.ui.workbench,3.4.1.M20080827-0800a,,1252265742937
activated,workbench,org.eclipse.ui.workbench,3.4.1.M20080827-0800a,,1252265746031
activated,view,org.eclipse.ui.console,3.3.0.v20080529-1300,org.eclipse.ui.console.ConsoleView,1252265746062
activated,editor,org.eclipse.jdt.ui,3.4.1.r341_v20080827-1100,org.eclipse.jdt.ui.CompilationUnitEditor,1252265747578
activated,editor,org.eclipse.jdt.ui,3.4.1.r341_v20080827-1100,org.eclipse.jdt.ui.CompilationUnitEditor,1252265748812
activated,editor,org.eclipse.jdt.ui,3.4.1.r341_v20080827-1100,org.eclipse.jdt.ui.CompilationUnitEditor,1252265750062
executed,command,org.eclipse.ui,3.4.1.M20080910-0800,org.eclipse.ui.file.save,1252265753671
executed,command,org.eclipse.ui,3.4.1.M20080910-0800,org.eclipse.ui.file.save,1252265772375
executed,command,org.eclipse.ui,3.4.1.M20080910-0800,org.eclipse.ui.file.save,1252265780375
executed,command,org.eclipse.ui,3.4.1.M20080910-0800,org.eclipse.ui.edit.undo,1252265783890
executed,command,org.eclipse.ui.workbench.texteditor,3.4.1.r341_v20080827-1100,org.eclipse.ui.edit.text.select.lineStart,1252265815593
