what,kind,bundleId,bundleVersion,description,time
activated,editor,org.eclipse.jdt.ui,3.4.1.r341_v20080827-1100,org.eclipse.jdt.ui.CompilationUnitEditor,1252102012490
activated,view,org.eclipse.ui.ide,3.4.1.M20080903-2000,org.eclipse.ui.views.ProblemView,1252102012928
activated,editor,org.eclipse.jdt.ui,3.4.1.r341_v20080827-1100,org.eclipse.jdt.ui.CompilationUnitEditor,1252102013178
deactivated,workbench,org.eclipse.ui.workbench,3.4.1.M20080827-0800a,,1252102015287
activated,workbench,org.eclipse.ui.workbench,3.4.1.M20080827-0800a,,1252102015819
deactivated,workbench,org.eclipse.ui.workbench,3.4.1.M20080827-0800a,,1252102016053
activated,workbench,org.eclipse.ui.workbench,3.4.1.M20080827-0800a,,1252102025522
deactivated,workbench,org.eclipse.ui.workbench,3.4.1.M20080827-0800a,,1252102026365
activated,workbench,org.eclipse.ui.workbench,3.4.1.M20080827-0800a,,1252102081662
activated,view,org.eclipse.jdt.ui,3.4.1.r341_v20080827-1100,org.eclipse.jdt.ui.PackageExplorer,1252102085365
activated,editor,org.eclipse.jdt.ui,3.4.1.r341_v20080827-1100,org.eclipse.jdt.ui.CompilationUnitEditor,1252102085725
activated,editor,org.eclipse.jdt.ui,3.4.1.r341_v20080827-1100,org.eclipse.jdt.ui.CompilationUnitEditor,1252102087303
deactivated,workbench,org.eclipse.ui.workbench,3.4.1.M20080827-0800a,,1252102092834
activated,workbench,org.eclipse.ui.workbench,3.4.1.M20080827-0800a,,1252102093006
deactivated,workbench,org.eclipse.ui.workbench,3.4.1.M20080827-0800a,,1252102095881
activated,workbench,org.eclipse.ui.workbench,3.4.1.M20080827-0800a,,1252102096506
deactivated,workbench,org.eclipse.ui.workbench,3.4.1.M20080827-0800a,,1252102097053
activated,workbench,org.eclipse.ui.workbench,3.4.1.M20080827-0800a,,1252102098506
deactivated,workbench,org.eclipse.ui.workbench,3.4.1.M20080827-0800a,,1252102102475
activated,workbench,org.eclipse.ui.workbench,3.4.1.M20080827-0800a,,1252102116319
executed,command,org.eclipse.ui.ide,3.4.1.M20080903-2000,org.eclipse.ui.project.properties,1252102116334
deactivated,workbench,org.eclipse.ui.workbench,3.4.1.M20080827-0800a,,1252102119319
started,bundle,org.eclipse.ui.externaltools,3.2.0.v20080514-1542,org.eclipse.ui.externaltools,1252102180240
activated,workbench,org.eclipse.ui.workbench,3.4.1.M20080827-0800a,,1252102186100
executed,command,org.eclipse.ui.ide,3.4.1.M20080903-2000,org.eclipse.ui.project.properties,1252102186131
