what,kind,bundleId,bundleVersion,description,time
activated,editor,org.eclipse.jdt.ui,3.4.1.r341_v20080827-1100,org.eclipse.jdt.ui.CompilationUnitEditor,1252192001531
executed,command,,,AUTOGEN:::org.eclipse.jdt.debug.CompilationUnitEditor.BreakpointRulerActions/org.eclipse.jdt.debug.ui.actions.ManageBreakpointRulerAction,1252192004875
activated,editor,org.eclipse.jdt.ui,3.4.1.r341_v20080827-1100,org.eclipse.jdt.ui.CompilationUnitEditor,1252192006234
deactivated,workbench,org.eclipse.ui.workbench,3.4.1.M20080827-0800a,,1252192007921
activated,workbench,org.eclipse.ui.workbench,3.4.1.M20080827-0800a,,1252192009984
activated,editor,org.eclipse.jdt.ui,3.4.1.r341_v20080827-1100,org.eclipse.jdt.ui.CompilationUnitEditor,1252192011812
executed,command,,,AUTOGEN:::org.eclipse.jdt.debug.CompilationUnitEditor.BreakpointRulerActions/org.eclipse.jdt.debug.ui.actions.ManageBreakpointRulerAction,1252192014718
executed,command,,,AUTOGEN:::org.eclipse.jdt.debug.CompilationUnitEditor.BreakpointRulerActions/org.eclipse.jdt.debug.ui.actions.ManageBreakpointRulerAction,1252192016484
activated,editor,org.eclipse.jdt.ui,3.4.1.r341_v20080827-1100,org.eclipse.jdt.ui.CompilationUnitEditor,1252192020015
deactivated,workbench,org.eclipse.ui.workbench,3.4.1.M20080827-0800a,,1252192021218
activated,workbench,org.eclipse.ui.workbench,3.4.1.M20080827-0800a,,1252192024093
executed,command,,,AUTOGEN:::org.eclipse.jdt.debug.CompilationUnitEditor.BreakpointRulerActions/org.eclipse.jdt.debug.ui.actions.ManageBreakpointRulerAction,1252192030218
executed,command,,,AUTOGEN:::org.eclipse.jdt.internal.ui.CompilationUnitEditor.ruler.actions/org.eclipse.jdt.internal.ui.javaeditor.JavaSelectRulerAction,1252192031468
executed,command,,,AUTOGEN:::org.eclipse.jdt.debug.CompilationUnitEditor.BreakpointRulerActions/org.eclipse.jdt.debug.ui.actions.ManageBreakpointRulerAction,1252192031578
executed,command,,,AUTOGEN:::org.eclipse.jdt.debug.CompilationUnitEditor.BreakpointRulerActions/org.eclipse.jdt.debug.ui.actions.ManageBreakpointRulerAction,1252192032203
deactivated,workbench,org.eclipse.ui.workbench,3.4.1.M20080827-0800a,,1252192035234
activated,workbench,org.eclipse.ui.workbench,3.4.1.M20080827-0800a,,1252192035578
deactivated,workbench,org.eclipse.ui.workbench,3.4.1.M20080827-0800a,,1252192035593
activated,workbench,org.eclipse.ui.workbench,3.4.1.M20080827-0800a,,1252192038000
opened,view,org.eclipse.debug.ui,3.4.1.v20080811_r341,org.eclipse.debug.ui.DebugView,1252192038437
opened,view,org.eclipse.debug.ui,3.4.1.v20080811_r341,org.eclipse.debug.ui.VariableView,1252192038593
activated,perspective,org.eclipse.debug.ui,3.4.1.v20080811_r341,org.eclipse.debug.ui.DebugPerspective,1252192038718
started,bundle,org.eclipse.mylyn.ide.ui,3.0.2.v20080918-1100-e3x,org.eclipse.mylyn.ide.ui,1252192039609
opened,view,org.eclipse.debug.ui,3.4.1.v20080811_r341,org.eclipse.debug.ui.BreakpointView,1252192039640
activated,view,org.eclipse.debug.ui,3.4.1.v20080811_r341,org.eclipse.debug.ui.DebugView,1252192044875
