what,kind,bundleId,bundleVersion,description,time
executed,command,org.eclipse.ui,3.4.1.M20080910-0800,org.eclipse.ui.file.save,1252189159671
executed,command,org.eclipse.ui,3.4.1.M20080910-0800,org.eclipse.ui.file.save,1252189172750
executed,command,org.eclipse.ui.workbench.texteditor,3.4.1.r341_v20080827-1100,org.eclipse.ui.edit.text.goto.lineEnd,1252189211515
executed,command,org.eclipse.ui,3.4.1.M20080910-0800,org.eclipse.ui.file.save,1252189223171
executed,command,org.eclipse.ui,3.4.1.M20080910-0800,org.eclipse.ui.file.save,1252189275765
executed,command,org.eclipse.ui,3.4.1.M20080910-0800,org.eclipse.ui.file.save,1252189281265
executed,command,org.eclipse.ui,3.4.1.M20080910-0800,org.eclipse.ui.edit.delete,1252189303187
executed,command,org.eclipse.ui,3.4.1.M20080910-0800,org.eclipse.ui.file.save,1252189315515
executed,command,org.eclipse.ui,3.4.1.M20080910-0800,org.eclipse.ui.file.save,1252189334312
executed,command,org.eclipse.ui,3.4.1.M20080910-0800,org.eclipse.ui.file.save,1252189336140
executed,command,org.eclipse.ui,3.4.1.M20080910-0800,org.eclipse.ui.file.save,1252189341328
executed,command,org.eclipse.ui,3.4.1.M20080910-0800,org.eclipse.ui.file.save,1252189353828
executed,command,org.eclipse.ui,3.4.1.M20080910-0800,org.eclipse.ui.file.save,1252189380781
executed,command,org.eclipse.ui,3.4.1.M20080910-0800,org.eclipse.ui.file.save,1252189423875
executed,command,org.eclipse.ui,3.4.1.M20080910-0800,org.eclipse.ui.file.save,1252189433296
executed,command,org.eclipse.ui,3.4.1.M20080910-0800,org.eclipse.ui.edit.copy,1252189435609
executed,command,org.eclipse.ui,3.4.1.M20080910-0800,org.eclipse.ui.edit.paste,1252189439656
executed,command,org.eclipse.ui,3.4.1.M20080910-0800,org.eclipse.ui.edit.paste,1252189445281
executed,command,org.eclipse.ui,3.4.1.M20080910-0800,org.eclipse.ui.file.save,1252189445937
executed,command,org.eclipse.ui,3.4.1.M20080910-0800,org.eclipse.ui.file.save,1252189447062
executed,command,org.eclipse.ui,3.4.1.M20080910-0800,org.eclipse.ui.file.save,1252189451640
executed,command,org.eclipse.ui,3.4.1.M20080910-0800,org.eclipse.ui.file.save,1252189457578
executed,command,org.eclipse.ui,3.4.1.M20080910-0800,org.eclipse.ui.file.save,1252189498156
executed,command,org.eclipse.ui,3.4.1.M20080910-0800,org.eclipse.ui.file.save,1252189509593
executed,command,org.eclipse.ui.workbench.texteditor,3.4.1.r341_v20080827-1100,org.eclipse.ui.edit.text.goto.lineEnd,1252189510203
