what,kind,bundleId,bundleVersion,description,time
deactivated,workbench,org.eclipse.ui.workbench,3.4.1.M20080827-0800a,,1252105982765
activated,workbench,org.eclipse.ui.workbench,3.4.1.M20080827-0800a,,1252105985750
executed,command,org.eclipse.ui,3.4.1.M20080910-0800,org.eclipse.ui.file.save,1252105986890
opened,view,org.eclipse.ant.ui,3.3.0.v20080529,org.eclipse.ant.ui.views.AntView,1252105989296
activated,view,org.eclipse.ant.ui,3.3.0.v20080529,org.eclipse.ant.ui.views.AntView,1252105989328
executed,command,org.eclipse.ui,3.4.1.M20080910-0800,org.eclipse.ui.views.showView,1252105989328
deactivated,workbench,org.eclipse.ui.workbench,3.4.1.M20080827-0800a,,1252105991390
activated,workbench,org.eclipse.ui.workbench,3.4.1.M20080827-0800a,,1252105998406
activated,view,org.eclipse.jdt.ui,3.4.1.r341_v20080827-1100,org.eclipse.jdt.ui.PackageExplorer,1252105999265
deactivated,workbench,org.eclipse.ui.workbench,3.4.1.M20080827-0800a,,1252106001156
activated,workbench,org.eclipse.ui.workbench,3.4.1.M20080827-0800a,,1252106003828
deactivated,workbench,org.eclipse.ui.workbench,3.4.1.M20080827-0800a,,1252106004406
activated,workbench,org.eclipse.ui.workbench,3.4.1.M20080827-0800a,,1252106005921
activated,view,org.eclipse.ant.ui,3.3.0.v20080529,org.eclipse.ant.ui.views.AntView,1252106006781
opened,view,org.eclipse.ui.console,3.3.0.v20080529-1300,org.eclipse.ui.console.ConsoleView,1252106010875
deactivated,workbench,org.eclipse.ui.workbench,3.4.1.M20080827-0800a,,1252106014031
activated,workbench,org.eclipse.ui.workbench,3.4.1.M20080827-0800a,,1252106025546
activated,view,org.eclipse.ui.console,3.3.0.v20080529-1300,org.eclipse.ui.console.ConsoleView,1252106026375
activated,editor,org.eclipse.ant.ui,3.3.0.v20080529,org.eclipse.ant.ui.internal.editor.AntEditor,1252106027593
activated,view,org.eclipse.ui.console,3.3.0.v20080529-1300,org.eclipse.ui.console.ConsoleView,1252106030781
activated,editor,org.eclipse.ant.ui,3.3.0.v20080529,org.eclipse.ant.ui.internal.editor.AntEditor,1252106039453
activated,view,org.eclipse.ui.console,3.3.0.v20080529-1300,org.eclipse.ui.console.ConsoleView,1252106042359
activated,editor,org.eclipse.ant.ui,3.3.0.v20080529,org.eclipse.ant.ui.internal.editor.AntEditor,1252106042468
activated,view,org.eclipse.ui.console,3.3.0.v20080529-1300,org.eclipse.ui.console.ConsoleView,1252106060203
activated,editor,org.eclipse.ant.ui,3.3.0.v20080529,org.eclipse.ant.ui.internal.editor.AntEditor,1252106060312
